X:1
%%tabaddflags 0
T:2674.tc
F:2674.tc.abc
L:1
Z:Converted to abc .abc by luteconv 1.1.0 encoding-date 2020-11-05
K:frenchtab
% Stave 1
% Bar 1
|\
[,,,c/4]\
[,,,c,a/8]\
[,,,c]\
% Bar 2
|\
[,a,,,a]\
[,,,,,a/16]\
.[,,d]\
[,,b,c/8]\
.[,,a/16]\
[,,,,a]\
% Bar 3
|\
[,,,,,d]\
.[,,,c]\
[,,,c,c]\
[,,,,,a]\
[,,,,,c/8]\
[,,,b]\
% Bar 4
|\
[a,,c,a/16]\
[,,a]\
[,,b/32]\
[,,a]\
[,,b]\
[,,d]\
[aabc/8]\
.[a]\
% Bar 5
|\
[hf,fh]\
[,,,,h/16]\
.[f]\
[,if,h/8]\
[,h,,g/16]\
[,,,h]\
% Bar 6
|
% Stave 2
% Bar 6
|\
[,,ffh]\
.[,f]\
[a,dcd/8]\
[aaa,c]\
.[,e]\
% Bar 7
|\
[aa,c,a/16]\
[,d/32]\
.[,b]\
[,a]\
.[,,d]\
[,,b]\
.[,,a]\
[,,,c/8]\
[,,,,,a]\
% Bar 8
|\
[,,,c,a]\
[,,,c,a]\
[,,,ca]\
.[,,,c/16]\
[,,,,,d]\
% Bar 9
|\
[,,d,,c/8]\
[,,,,,a/16]\
.[,,b]\
[,,a,c/8]\
[aa,c,a]\
% Bar 10
|\
[,,,c]\
[aa,c]\
[abd]\
.[a/16]\
[,,b]\
% Bar 11
|
% Stave 3
% Bar 11
|\
[f,de/8]\
[,a,c/16]\
.[d]\
[ca,b/8]\
[aa,c]\
% Bar 12
|\
[da,c]\
[ca,,c]\
[,,,a]\
[aa,c/16]\
[,d]\
% Bar 13
|\
[,cee/8]\
[,,ff]\
[,c,e]\
[,,e]\
% Bar 14
|\
[,df,c]\
[a,bc,a]\
[,,,,,d]\
[,,dca/16]\
.[,,b]\
% Bar 15
|\
[,,abc/8]\
[,,,cd]\
[,aa,c]\
[,,,b]\
% Bar 16
|\
[,,bc,a/16]\
.[,,,b]\
[,,,c]\
.[,,a]\
[,,bc,a]\
.[,,d]\
[,abc/8]\
% Bar 17
|
% Stave 4
% Bar 17
|\
[,aab]\
[,abc]\
[,,,ce]\
[,ce]\
% Bar 18
|\
[,df,c]\
[,,f/16]\
.[,c]\
[,df,c]\
.[,c]\
[,d]\
.[,f]\
% Bar 19
|\
[cce/8]\
[cdf]\
[,ab]\
.[a]\
% Bar 20
|\
[cca/16]\
.[a]\
[c/32]\
.[a]\
[c]\
.[d]\
[fca/16]\
.[d]\
[ccd]\
.[a]\
% Bar 21
|\
[ccd]\
[aab]\
[a,de]\
[,,,c]\
[,,de/8]\
[ce]\
% Bar 22
|
% Stave 5
% Bar 22
|\
[,if,h]\
[,f/16]\
.[,h]\
[,if,h]\
.[,f]\
[,h]\
.[,i]\
% Bar 23
|\
[,hf,g/8]\
[hi,,h]\
[,f,,e]\
.[g]\
% Bar 24
|\
[hea,,h]\
.[,f]\
[hfa,,h]\
.[,e]\
% Bar 25
|\
[hff,h/16]\
.[f]\
[,i]\
.[,h]\
[,fgh/8]\
.[,h]\
% Bar 26
|\
[,,ff/16]\
.[,f]\
[,fgh/8]\
[,,de]\
[fe]\
% Bar 27
|
% Stave 6
% Bar 27
|\
[eff,,a]\
.[h]\
[,fgh/16]\
[f]\
[fdde/8]\
% Bar 28
|\
[,,,,,a/16]\
[fff]\
[e]\
.[c]\
[eff,,a]\
.[c]\
[a]\
.[,d]\
% Bar 29
|\
[,cdca/8]\
[cdda]\
[,abc/16]\
.[a]\
[acd,a/8]\
% Bar 30
|\
[a,a,c]\
[,e/16]\
.[,c]\
[,da,c]\
.[,c]\
[,a]\
.[,,d]\
% Bar 31
|\
[,abc]\
[,,d/32]\
.[,a]\
[,b/8]\
[,,,a/16]\
[,aa]\
[,abc/8]\
% Bar 32
|
% Stave 7
% Bar 32
|\
[,,,cd/16]\
.[,a]\
[,,d]\
.[,,b]\
[,,dcd/8]\
.[a]\
% Bar 33
|\
[,,,,c/16]\
[cf]\
[,e]\
.[,c]\
[ce,,c]\
.[,c]\
[,f]\
.[,e]\
% Bar 34
|\
[aa,c]\
[,,,a]\
[,,,,e]\
[,,,,c]\
[a,d,a]\
[,,,,,e]\
[,,,,a]\
[,,,,c]\
% Bar 35
|\
[a,,,e]\
[,,,a]\
[,,,c/8]\
[,,a,c/16]\
.[a]\
[c/32]\
.[a]\
[,e]\
.[,c]\
% Bar 36
|
% Stave 8
% Bar 36
|\
[,ea,c/16]\
.[,a]\
[,c]\
.[,e]\
[a,,c,a/8]\
.[,a]\
% Bar 37
|\
[,,,,,a/16]\
.[,,d]\
[,,b]\
.[,,a]\
[aa,c]\
[,,,,e]\
[,,,a]\
[,,,c]\
% Bar 38
|\
[a,d,a]\
.[,d]\
[,c]\
.[,a]\
[,,de/8]\
[,d/16]\
[,,,c]\
% Bar 39
|\
[,,,a]\
.[,c]\
[,a]\
[,,,,e]\
[,a,,c]\
.[,,d]\
[,,b]\
.[,,a]\
% Bar 40
|
% Stave 9
% Bar 40
|\
[,,,ce/8]\
.[,,d/16]\
[,,,,c]\
[,,,,a]\
.[,,b]\
[,,a]\
[,,,,,d]\
% Bar 41
|\
[,,a,,c]\
.[,,,c]\
[,,,a]\
.[,,,,e]\
[,,,,cd/8]\
.[,,b/16]\
[,,,,,c]\
% Bar 42
|\
[,,,,,a]\
.[,,a]\
[,,,c]\
[,,,,,c]\
[,,,,,d]\
[,,,,a]\
[,,,bc/8]\
% Bar 43
|\
[,,,c,d]\
[,,,,,f]\
.[,,,c]\
[,,,,,d/16]\
[,,,,,c]\
% Bar 44
|
% Stave 10
% Bar 44
|\
[,,bc,a/8]\
[,a]\
[,,,c/16]\
[,ab]\
[,aaa]\
[,,,ce]\
% Bar 45
|\
[,da,c]\
.[,c]\
[,d]\
.[a]\
[,,,,c]\
[,da]\
[,c,a]\
.[,a]\
% Bar 46
|\
[,,def]\
[,,,c]\
[,,de/8]\
[,,,,f/16]\
[,,de]\
[,b,,d]\
[,,,,c]\
% Bar 47
|\
[,bd,a]\
.[,a]\
[,bd/8]\
[,,,,a/16]\
[,bd]\
[,a]\
.[,,d]\
% Bar 48
|
% Stave 11
% Bar 48
|\
[,,bcd]\
.[,,a]\
[,,bc/8]\
[,,,,d/16]\
[,,bc]\
[,,,,c]\
[,,,,a]\
% Bar 49
|\
[,,,,,d]\
[,ab]\
[,,dca]\
.[,,b]\
[,,abc]\
.[,,,c]\
[,,a]\
.[,,b]\
% Bar 50
|\
[,,,,,c]\
[,,de]\
[,,bc]\
[,,aa]\
[,,,cef]\
.[,,a]\
[,,b,,d]\
[,,,,,c]\
% Bar 51
|\
[,,,,,a]\
[,,bc]\
[,,a]\
.[,,,c]\
[,,,,c]\
.[,,b]\
[,,a]\
.[,,,c]\
% Bar 52
|
% Stave 12
% Bar 52
|\
[,,a]\
.[,,b]\
[,,a,a/8]\
[,,,,,d/16]\
.[,,,c]\
[,,,c,c]\
[,,,,,a]\
% Bar 53
|\
[,,,,,c]\
[,,,,,d]\
[c,,b,c/8]\
[,,,,,a/16]\
[da,c]\
[ca,c]\
.[a]\
% Bar 54
|\
[c]\
[d]\
[ca,bc/8]\
[,,,cd/16]\
.[a]\
[a,dcd]\
[,,,,a]\
% Bar 55
|\
[aaa,c]\
[,e/32]\
.[,c]\
[,ea,c/16]\
.[a]\
[,,,,a]\
[abd]\
[,a]\
.[,,d]\
% Bar 56
|
% Stave 13
% Bar 56
|\
[,a]\
.[,b]\
[aa,,,e/8]\
[a,d,d]\
[,,,,c/16]\
[,,,,a]\
% Bar 57
|\
[,,,,c]\
[,,,,d]\
[a,c,ca/8]\
[,,,,a/16]\
[,,d]\
[a,d,d/8]\
% Bar 58
|\
[a,d,ca]\
[,,c]\
[abd,a/4]\
% Bar 59
|\
[,,,,a/16]\
[abd]\
[,a]\
.[,,d]\
H[aacc,a/]\
% Bar 60
||\
