<?xml version="1.0" standalone="no"?>
<mei xmlns="http://www.music-encoding.org/ns/mei" meiversion="3.0.0">
    <meiHead>
        <fileDesc>
            <titleStmt>
                <title>Allemande Partie</title>
            </titleStmt>
            <pubStmt />
        </fileDesc>
        <encodingDesc>
            <appInfo>
                <application isodate="2020-11-09" version="1.1.0">
                    <name>luteconv</name>
                </application>
            </appInfo>
        </encodingDesc>
        <workDesc>
            <work>
                <titleStmt>
                    <title>Allemande Partie</title>
                    <composer>
                        <name>
                            <persName> da copia a mano di J.-F. Goy del ms. Oxford G616 p.2-3</persName>
                        </name>
                    </composer>
                </titleStmt>
                <perfMedium>
                    <perfResList>
                        <perfRes label="lute" solo="true">
                            <instrConfig>
                                <courseTuning>
                                    <course n="1" pname="f" oct="4" />
                                    <course n="2" pname="d" oct="4" />
                                    <course n="3" pname="a" oct="3" />
                                    <course n="4" pname="f" oct="3" />
                                    <course n="5" pname="d" oct="3" />
                                    <course n="6" pname="a" oct="2" />
                                    <course n="7" pname="g" oct="2" />
                                    <course n="8" pname="f" oct="2" />
                                    <course n="9" pname="e" oct="2" />
                                    <course n="10" pname="d" oct="2" />
                                    <course n="11" pname="c" oct="2" />
                                </courseTuning>
                            </instrConfig>
                        </perfRes>
                    </perfResList>
                </perfMedium>
            </work>
        </workDesc>
    </meiHead>
    <music>
        <body>
            <mdiv n="1">
                <score>
                    <scoreDef>
                        <staffGrp>
                            <staffDef n="1" lines="6" notationtype="tab.lute.french">
                                <tuning tuning.standard="lute.baroque.11" />
                                <mensur sign="C" />
                            </staffDef>
                        </staffGrp>
                    </scoreDef>
                    <section n="1">
                        <measure n="1">
                            <staff n="1">
                                <layer n="1">
                                    <tabGrp dur.ges="4">
                                        <tabRhythm />
                                        <note tab.course="3" tab.fret="3" />
                                    </tabGrp>
                                </layer>
                            </staff>
                        </measure>
                        <measure n="2">
                            <staff n="1">
                                <layer n="1">
                                    <tabGrp dur.ges="4" dots="1">
                                        <tabRhythm />
                                        <note tab.course="3" tab.fret="3" />
                                        <note tab.course="4" tab.fret="2" />
                                        <note tab.course="5" tab.fret="2" />
                                        <note tab.course="11" tab.fret="0" />
                                    </tabGrp>
                                    <tabGrp dur.ges="8">
                                        <tabRhythm />
                                        <note tab.course="2" tab.fret="0" />
                                    </tabGrp>
                                    <tabGrp dur.ges="4">
                                        <tabRhythm />
                                        <note tab.course="2" tab.fret="2" />
                                    </tabGrp>
                                    <tabGrp dur.ges="4">
                                        <tabRhythm />
                                        <note tab.course="1" tab.fret="0" />
                                    </tabGrp>
                                    <tabGrp dur.ges="4">
                                        <tabRhythm />
                                        <note tab.course="2" tab.fret="0" />
                                        <note tab.course="6" tab.fret="2" />
                                    </tabGrp>
                                    <tabGrp dur.ges="4">
                                        <tabRhythm />
                                        <note tab.course="1" tab.fret="2" />
                                    </tabGrp>
                                    <tabGrp dur.ges="4">
                                        <tabRhythm />
                                        <note tab.course="1" tab.fret="2" />
                                    </tabGrp>
                                    <tabGrp dur.ges="4">
                                        <tabRhythm />
                                        <note tab.course="1" tab.fret="0" />
                                    </tabGrp>
                                </layer>
                            </staff>
                        </measure>
                        <measure n="3">
                            <staff n="1">
                                <layer n="1">
                                    <tabGrp dur.ges="4">
                                        <tabRhythm />
                                        <note tab.course="2" tab.fret="2" />
                                        <note tab.course="6" tab.fret="3" />
                                    </tabGrp>
                                    <tabGrp dur.ges="4">
                                        <tabRhythm />
                                        <note tab.course="2" tab.fret="2" />
                                    </tabGrp>
                                    <tabGrp dur.ges="4">
                                        <tabRhythm />
                                        <note tab.course="2" tab.fret="0" />
                                        <note tab.course="8" tab.fret="0" />
                                    </tabGrp>
                                    <tabGrp dur.ges="4">
                                        <tabRhythm />
                                        <note tab.course="3" tab.fret="3" />
                                    </tabGrp>
                                    <tabGrp dur.ges="4">
                                        <tabRhythm />
                                        <note tab.course="3" tab.fret="2" />
                                        <note tab.course="7" tab.fret="0" />
                                    </tabGrp>
                                    <tabGrp dur.ges="4">
                                        <tabRhythm />
                                        <note tab.course="4" tab.fret="2" />
                                    </tabGrp>
                                    <tabGrp dur.ges="4">
                                        <tabRhythm />
                                        <note tab.course="2" tab.fret="0" />
                                    </tabGrp>
                                    <tabGrp dur.ges="4">
                                        <tabRhythm />
                                        <note tab.course="8" tab.fret="0" />
                                    </tabGrp>
                                </layer>
                            </staff>
                        </measure>
                        <measure n="4">
                            <staff n="1">
                                <layer n="1">
                                    <tabGrp dur.ges="4">
                                        <tabRhythm />
                                        <note tab.course="9" tab.fret="0" />
                                    </tabGrp>
                                    <tabGrp dur.ges="4">
                                        <tabRhythm />
                                        <note tab.course="4" tab.fret="2" />
                                    </tabGrp>
                                    <tabGrp dur.ges="4">
                                        <tabRhythm />
                                        <note tab.course="3" tab.fret="3" />
                                    </tabGrp>
                                    <tabGrp dur.ges="4">
                                        <tabRhythm />
                                        <note tab.course="3" tab.fret="3" />
                                    </tabGrp>
                                    <tabGrp dur.ges="4">
                                        <tabRhythm />
                                        <note tab.course="2" tab.fret="0" />
                                        <note tab.course="10" tab.fret="0" />
                                    </tabGrp>
                                    <tabGrp dur.ges="4">
                                        <tabRhythm />
                                        <note tab.course="2" tab.fret="2" />
                                    </tabGrp>
                                    <tabGrp dur.ges="4">
                                        <tabRhythm />
                                        <note tab.course="1" tab.fret="0" />
                                    </tabGrp>
                                    <tabGrp dur.ges="4">
                                        <tabRhythm />
                                        <note tab.course="1" tab.fret="2" />
                                    </tabGrp>
                                </layer>
                            </staff>
                        </measure>
                        <measure n="5">
                            <staff n="1">
                                <layer n="1">
                                    <tabGrp dur.ges="4">
                                        <tabRhythm />
                                        <note tab.course="2" tab.fret="2" />
                                        <note tab.course="11" tab.fret="0" />
                                    </tabGrp>
                                    <tabGrp dur.ges="4">
                                        <tabRhythm />
                                        <note tab.course="2" tab.fret="2" />
                                    </tabGrp>
                                    <tabGrp dur.ges="4">
                                        <tabRhythm />
                                        <note tab.course="2" tab.fret="0" />
                                        <note tab.course="7" tab.fret="1" />
                                    </tabGrp>
                                    <tabGrp dur.ges="4">
                                        <tabRhythm />
                                        <note tab.course="3" tab.fret="2" />
                                    </tabGrp>
                                    <tabGrp dur.ges="4">
                                        <tabRhythm />
                                        <note tab.course="3" tab.fret="3" />
                                        <note tab.course="6" tab.fret="0" />
                                    </tabGrp>
                                    <tabGrp dur.ges="4">
                                        <tabRhythm />
                                        <note tab.course="5" tab.fret="2" />
                                    </tabGrp>
                                    <tabGrp dur.ges="4">
                                        <tabRhythm />
                                        <note tab.course="3" tab.fret="4" />
                                    </tabGrp>
                                    <tabGrp dur.ges="4">
                                        <tabRhythm />
                                        <note tab.course="2" tab.fret="0" />
                                        <note tab.course="5" tab.fret="0" />
                                    </tabGrp>
                                </layer>
                            </staff>
                        </measure>
                        <measure n="6">
                            <staff n="1">
                                <layer n="1">
                                    <tabGrp dur.ges="4">
                                        <tabRhythm />
                                        <note tab.course="2" tab.fret="2" />
                                        <note tab.course="6" tab.fret="4" />
                                    </tabGrp>
                                    <tabGrp dur.ges="4">
                                        <tabRhythm />
                                        <note tab.course="3" tab.fret="0" />
                                    </tabGrp>
                                    <tabGrp dur.ges="4">
                                        <tabRhythm />
                                        <note tab.course="1" tab.fret="4" />
                                    </tabGrp>
                                    <tabGrp dur.ges="4">
                                        <tabRhythm />
                                        <note tab.course="1" tab.fret="2" />
                                    </tabGrp>
                                    <tabGrp dur.ges="4">
                                        <tabRhythm />
                                        <note tab.course="1" tab.fret="0" />
                                        <note tab.course="5" tab.fret="0" />
                                    </tabGrp>
                                    <tabGrp dur.ges="4">
                                        <tabRhythm />
                                        <note tab.course="2" tab.fret="0" />
                                    </tabGrp>
                                    <tabGrp dur.ges="4">
                                        <tabRhythm />
                                        <note tab.course="1" tab.fret="2" />
                                    </tabGrp>
                                    <tabGrp dur.ges="4">
                                        <tabRhythm />
                                        <note tab.course="3" tab.fret="3" />
                                    </tabGrp>
                                </layer>
                            </staff>
                        </measure>
                        <measure n="7">
                            <staff n="1">
                                <layer n="1">
                                    <tabGrp dur.ges="4">
                                        <tabRhythm />
                                        <note tab.course="3" tab.fret="2" />
                                        <note tab.course="7" tab.fret="0" />
                                    </tabGrp>
                                    <tabGrp dur.ges="4">
                                        <tabRhythm />
                                        <note tab.course="4" tab.fret="2" />
                                    </tabGrp>
                                    <tabGrp dur.ges="4">
                                        <tabRhythm />
                                        <note tab.course="2" tab.fret="0" />
                                    </tabGrp>
                                    <tabGrp dur.ges="4">
                                        <tabRhythm />
                                        <note tab.course="8" tab.fret="0" />
                                    </tabGrp>
                                    <tabGrp dur.ges="2" dots="1">
                                        <tabRhythm />
                                        <note tab.course="3" tab.fret="3" />
                                        <note tab.course="4" tab.fret="2" />
                                        <note tab.course="9" tab.fret="0" />
                                    </tabGrp>
                                    <tabGrp dur.ges="4">
                                        <tabRhythm />
                                        <note tab.course="3" tab.fret="3" />
                                    </tabGrp>
                                </layer>
                            </staff>
                        </measure>
                        <measure n="8">
                            <staff n="1">
                                <layer n="1">
                                    <tabGrp dur.ges="2">
                                        <tabRhythm />
                                        <note tab.course="3" tab.fret="3" />
                                        <note tab.course="4" tab.fret="1" />
                                        <note tab.course="10" tab.fret="0" />
                                    </tabGrp>
                                    <tabGrp dur.ges="4">
                                        <tabRhythm />
                                        <note tab.course="3" tab.fret="2" />
                                        <note tab.course="4" tab.fret="2" />
                                        <note tab.course="7" tab.fret="0" />
                                    </tabGrp>
                                    <tabGrp dur.ges="4">
                                        <tabRhythm />
                                        <note tab.course="6" tab.fret="3" />
                                    </tabGrp>
                                    <tabGrp dur.ges="4">
                                        <tabRhythm />
                                        <note tab.course="5" tab.fret="0" />
                                    </tabGrp>
                                    <tabGrp dur.ges="8">
                                        <tabRhythm />
                                        <note tab.course="3" tab.fret="2" />
                                    </tabGrp>
                                    <tabGrp dur.ges="8">
                                        <tabRhythm />
                                        <note tab.course="3" tab.fret="3" />
                                    </tabGrp>
                                    <tabGrp dur.ges="4" dots="1">
                                        <tabRhythm />
                                        <note tab.course="3" tab.fret="0" />
                                        <note tab.course="10" tab.fret="0" />
                                    </tabGrp>
                                    <tabGrp dur.ges="16">
                                        <tabRhythm />
                                        <note tab.course="4" tab.fret="2" />
                                    </tabGrp>
                                    <tabGrp dur.ges="16">
                                        <tabRhythm />
                                        <note tab.course="3" tab.fret="0" />
                                    </tabGrp>
                                </layer>
                            </staff>
                        </measure>
                        <measure n="9">
                            <staff n="1">
                                <layer n="1">
                                    <tabGrp dur.ges="4">
                                        <tabRhythm />
                                        <note tab.course="4" tab.fret="2" />
                                    </tabGrp>
                                    <tabGrp dur.ges="4">
                                        <tabRhythm />
                                        <note tab.course="7" tab.fret="0" />
                                    </tabGrp>
                                    <tabGrp dur.ges="4">
                                        <tabRhythm />
                                        <note tab.course="5" tab.fret="0" />
                                    </tabGrp>
                                    <tabGrp dur.ges="4">
                                        <tabRhythm />
                                        <note tab.course="4" tab.fret="2" />
                                    </tabGrp>
                                    <tabGrp dur.ges="2" dots="1">
                                        <tabRhythm />
                                        <note tab.course="1" tab.fret="2" />
                                        <note tab.course="2" tab.fret="0" />
                                        <note tab.course="3" tab.fret="2" />
                                        <note tab.course="4" tab.fret="2" />
                                    </tabGrp>
                                </layer>
                            </staff>
                        </measure>
                        <measure n="10">
                            <staff n="1">
                                <layer n="1">
                                    <tabGrp dur.ges="4">
                                        <tabRhythm />
                                        <note tab.course="1" tab.fret="2" />
                                    </tabGrp>
                                </layer>
                            </staff>
                        </measure>
                        <measure n="11">
                            <staff n="1">
                                <layer n="1">
                                    <tabGrp dur.ges="4" dots="1">
                                        <tabRhythm />
                                        <note tab.course="1" tab.fret="2" />
                                        <note tab.course="2" tab.fret="0" />
                                        <note tab.course="3" tab.fret="2" />
                                        <note tab.course="4" tab.fret="2" />
                                        <note tab.course="7" tab.fret="0" />
                                    </tabGrp>
                                    <tabGrp dur.ges="8">
                                        <tabRhythm />
                                        <note tab.course="2" tab.fret="0" />
                                    </tabGrp>
                                    <tabGrp dur.ges="4">
                                        <tabRhythm />
                                        <note tab.course="2" tab.fret="2" />
                                    </tabGrp>
                                    <tabGrp dur.ges="4">
                                        <tabRhythm />
                                        <note tab.course="3" tab.fret="3" />
                                    </tabGrp>
                                    <tabGrp dur.ges="4">
                                        <tabRhythm />
                                        <note tab.course="3" tab.fret="2" />
                                    </tabGrp>
                                    <tabGrp dur.ges="4">
                                        <tabRhythm />
                                        <note tab.course="5" tab.fret="0" />
                                    </tabGrp>
                                    <tabGrp dur.ges="4">
                                        <tabRhythm />
                                        <note tab.course="5" tab.fret="2" />
                                    </tabGrp>
                                    <tabGrp dur.ges="4">
                                        <tabRhythm />
                                        <note tab.course="6" tab.fret="3" />
                                    </tabGrp>
                                </layer>
                            </staff>
                        </measure>
                        <measure n="12">
                            <staff n="1">
                                <layer n="1">
                                    <tabGrp dur.ges="4">
                                        <tabRhythm />
                                        <note tab.course="2" tab.fret="0" />
                                        <note tab.course="4" tab.fret="2" />
                                        <note tab.course="6" tab.fret="2" />
                                    </tabGrp>
                                    <tabGrp dur.ges="4">
                                        <tabRhythm />
                                        <note tab.course="7" tab.fret="0" />
                                    </tabGrp>
                                    <tabGrp dur.ges="4">
                                        <tabRhythm />
                                        <note tab.course="1" tab.fret="2" />
                                    </tabGrp>
                                    <tabGrp dur.ges="4">
                                        <tabRhythm />
                                        <note tab.course="2" tab.fret="3" />
                                    </tabGrp>
                                    <tabGrp dur.ges="4">
                                        <tabRhythm />
                                        <note tab.course="2" tab.fret="2" />
                                        <note tab.course="6" tab.fret="3" />
                                    </tabGrp>
                                    <tabGrp dur.ges="4">
                                        <tabRhythm />
                                        <note tab.course="5" tab.fret="0" />
                                    </tabGrp>
                                    <tabGrp dur.ges="4">
                                        <tabRhythm />
                                        <note tab.course="5" tab.fret="2" />
                                    </tabGrp>
                                    <tabGrp dur.ges="4">
                                        <tabRhythm />
                                        <note tab.course="2" tab.fret="2" />
                                    </tabGrp>
                                </layer>
                            </staff>
                        </measure>
                        <measure n="13">
                            <staff n="1">
                                <layer n="1">
                                    <tabGrp dur.ges="4">
                                        <tabRhythm />
                                        <note tab.course="2" tab.fret="2" />
                                        <note tab.course="5" tab.fret="3" />
                                    </tabGrp>
                                    <tabGrp dur.ges="4">
                                        <tabRhythm />
                                        <note tab.course="3" tab.fret="0" />
                                    </tabGrp>
                                    <tabGrp dur.ges="4">
                                        <tabRhythm />
                                        <note tab.course="1" tab.fret="4" />
                                    </tabGrp>
                                    <tabGrp dur.ges="4">
                                        <tabRhythm />
                                        <note tab.course="1" tab.fret="6" />
                                    </tabGrp>
                                    <tabGrp dur.ges="4">
                                        <tabRhythm />
                                        <note tab.course="1" tab.fret="7" />
                                        <note tab.course="6" tab.fret="0" />
                                    </tabGrp>
                                    <tabGrp dur.ges="4">
                                        <tabRhythm />
                                        <note tab.course="3" tab.fret="7" />
                                    </tabGrp>
                                    <tabGrp dur.ges="4">
                                        <tabRhythm />
                                        <note tab.course="2" tab.fret="3" />
                                    </tabGrp>
                                    <tabGrp dur.ges="4">
                                        <tabRhythm />
                                        <note tab.course="2" tab.fret="0" />
                                    </tabGrp>
                                </layer>
                            </staff>
                        </measure>
                        <measure n="14">
                            <staff n="1">
                                <layer n="1">
                                    <tabGrp dur.ges="2">
                                        <tabRhythm />
                                        <note tab.course="1" tab.fret="4" />
                                        <note tab.course="2" tab.fret="2" />
                                        <note tab.course="3" tab.fret="3" />
                                    </tabGrp>
                                    <tabGrp dur.ges="4">
                                        <tabRhythm />
                                        <note tab.course="3" tab.fret="2" />
                                    </tabGrp>
                                    <tabGrp dur.ges="4">
                                        <tabRhythm />
                                        <note tab.course="4" tab.fret="4" />
                                    </tabGrp>
                                    <tabGrp dur.ges="2">
                                        <tabRhythm />
                                        <note tab.course="1" tab.fret="4" />
                                        <note tab.course="3" tab.fret="2" />
                                        <note tab.course="5" tab.fret="2" />
                                    </tabGrp>
                                    <tabGrp dur.ges="4">
                                        <tabRhythm />
                                        <note tab.course="1" tab.fret="2" />
                                    </tabGrp>
                                    <tabGrp dur.ges="4">
                                        <tabRhythm />
                                        <note tab.course="1" tab.fret="2" />
                                    </tabGrp>
                                </layer>
                            </staff>
                        </measure>
                        <measure n="15">
                            <staff n="1">
                                <layer n="1">
                                    <tabGrp dur.ges="2">
                                        <tabRhythm />
                                        <note tab.course="1" tab.fret="2" />
                                        <note tab.course="3" tab.fret="4" />
                                        <note tab.course="4" tab.fret="4" />
                                    </tabGrp>
                                    <tabGrp dur.ges="2">
                                        <tabRhythm />
                                        <note tab.course="1" tab.fret="0" />
                                        <note tab.course="2" tab.fret="2" />
                                        <note tab.course="5" tab.fret="0" />
                                    </tabGrp>
                                    <tabGrp dur.ges="2">
                                        <tabRhythm />
                                        <note tab.course="2" tab.fret="2" />
                                        <note tab.course="3" tab.fret="5" />
                                        <note tab.course="6" tab.fret="0" />
                                    </tabGrp>
                                    <tabGrp dur.ges="4">
                                        <tabRhythm />
                                        <note tab.course="3" tab.fret="4" />
                                    </tabGrp>
                                    <tabGrp dur.ges="4">
                                        <tabRhythm />
                                        <note tab.course="4" tab.fret="2" />
                                    </tabGrp>
                                </layer>
                            </staff>
                        </measure>
                        <measure n="16">
                            <staff n="1">
                                <layer n="1">
                                    <tabGrp dur.ges="2">
                                        <tabRhythm />
                                        <note tab.course="2" tab.fret="0" />
                                        <note tab.course="3" tab.fret="0" />
                                        <note tab.course="5" tab.fret="4" />
                                    </tabGrp>
                                    <tabGrp dur.ges="4">
                                        <tabRhythm />
                                        <note tab.course="3" tab.fret="3" />
                                    </tabGrp>
                                    <tabGrp dur.ges="4">
                                        <tabRhythm />
                                        <note tab.course="2" tab.fret="0" />
                                    </tabGrp>
                                    <tabGrp dur.ges="2">
                                        <tabRhythm />
                                        <note tab.course="1" tab.fret="2" />
                                        <note tab.course="3" tab.fret="2" />
                                        <note tab.course="7" tab.fret="0" />
                                    </tabGrp>
                                    <tabGrp dur.ges="4">
                                        <tabRhythm />
                                        <note tab.course="1" tab.fret="0" />
                                    </tabGrp>
                                    <tabGrp dur.ges="4">
                                        <tabRhythm />
                                        <note tab.course="1" tab.fret="2" />
                                    </tabGrp>
                                </layer>
                            </staff>
                        </measure>
                        <measure n="17">
                            <staff n="1">
                                <layer n="1">
                                    <tabGrp dur.ges="4">
                                        <tabRhythm />
                                        <note tab.course="2" tab.fret="5" />
                                        <note tab.course="9" tab.fret="0" />
                                    </tabGrp>
                                    <tabGrp dur.ges="4">
                                        <tabRhythm />
                                        <note tab.course="1" tab.fret="7" />
                                    </tabGrp>
                                    <tabGrp dur.ges="4">
                                        <tabRhythm />
                                        <note tab.course="3" tab.fret="7" />
                                    </tabGrp>
                                    <tabGrp dur.ges="4">
                                        <tabRhythm />
                                        <note tab.course="1" tab.fret="6" />
                                    </tabGrp>
                                    <tabGrp dur.ges="4">
                                        <tabRhythm />
                                        <note tab.course="1" tab.fret="4" />
                                        <note tab.course="2" tab.fret="3" />
                                        <note tab.course="8" tab.fret="0" />
                                    </tabGrp>
                                    <tabGrp dur.ges="4">
                                        <tabRhythm />
                                        <note tab.course="1" tab.fret="2" />
                                        <note tab.course="2" tab.fret="2" />
                                    </tabGrp>
                                    <tabGrp dur.ges="4">
                                        <tabRhythm />
                                        <note tab.course="1" tab.fret="0" />
                                        <note tab.course="2" tab.fret="0" />
                                    </tabGrp>
                                    <tabGrp dur.ges="4">
                                        <tabRhythm />
                                        <note tab.course="2" tab.fret="2" />
                                        <note tab.course="3" tab.fret="3" />
                                    </tabGrp>
                                </layer>
                            </staff>
                        </measure>
                        <measure n="18">
                            <staff n="1">
                                <layer n="1">
                                    <tabGrp dur.ges="2" dots="1">
                                        <tabRhythm />
                                        <note tab.course="1" tab.fret="2" />
                                        <note tab.course="3" tab.fret="2" />
                                        <note tab.course="7" tab.fret="0" />
                                    </tabGrp>
                                    <tabGrp dur.ges="4">
                                        <tabRhythm />
                                        <note tab.course="1" tab.fret="0" />
                                        <note tab.course="6" tab.fret="2" />
                                    </tabGrp>
                                    <tabGrp dur.ges="4">
                                        <tabRhythm />
                                        <note tab.course="2" tab.fret="2" />
                                        <note tab.course="6" tab.fret="3" />
                                    </tabGrp>
                                    <tabGrp dur.ges="4">
                                        <tabRhythm />
                                        <note tab.course="8" tab.fret="0" />
                                    </tabGrp>
                                    <tabGrp dur.ges="4" dots="1">
                                        <tabRhythm />
                                        <note tab.course="2" tab.fret="0" />
                                        <note tab.course="7" tab.fret="0" />
                                    </tabGrp>
                                    <tabGrp dur.ges="16">
                                        <tabRhythm />
                                        <note tab.course="3" tab.fret="3" />
                                    </tabGrp>
                                    <tabGrp dur.ges="16">
                                        <tabRhythm />
                                        <note tab.course="2" tab.fret="0" />
                                    </tabGrp>
                                </layer>
                            </staff>
                        </measure>
                        <measure n="19">
                            <staff n="1">
                                <layer n="1">
                                    <tabGrp dur.ges="4">
                                        <tabRhythm />
                                        <note tab.course="3" tab.fret="3" />
                                    </tabGrp>
                                    <tabGrp dur.ges="4">
                                        <tabRhythm />
                                        <note tab.course="11" tab.fret="0" />
                                    </tabGrp>
                                    <tabGrp dur.ges="4">
                                        <tabRhythm />
                                        <note tab.course="6" tab.fret="3" />
                                    </tabGrp>
                                    <tabGrp dur.ges="4">
                                        <tabRhythm />
                                        <note tab.course="5" tab.fret="2" />
                                    </tabGrp>
                                    <tabGrp dur.ges="2" dots="1">
                                        <tabRhythm />
                                        <note tab.course="3" tab.fret="3" />
                                        <note tab.course="4" tab.fret="2" />
                                        <note tab.course="5" tab.fret="2" />
                                    </tabGrp>
                                </layer>
                            </staff>
                        </measure>
                    </section>
                </score>
            </mdiv>
        </body>
    </music>
</mei>
