% Converted to .tab by luteconv 1.1.0
% encoding-date 2020-11-09
-C
-highlightparen
-tuning c4d4e4f4g4a3d3f3a2d2f2
-b
{Allemande Partie/ da copia a mano di J.-F. Goy del ms. Oxford G616 p.2-3}
{with the Contrepartie in Sloane 2923 p.34}

% Stave 1
% Bar 1
b
C
1  d
% Bar 2
b
1.  dcc 4
2 a
1 c
xa
x a   c
xc
xc
xa
% Bar 3
b
1 c   d
x c
x a    /a
x  d
x  c   a
x   c
x a
x      /a
% Bar 4
b
1      //a
x   c
x  d
x  d
x a    ///a
x c
xa
xc
% Bar 5
b
1 c    4
x c
x a    b
x  c
x  d  a
x    c
x  e
x a  a
% Bar 6
b

% Stave 2
% Bar 6
b
1 c   e
x  a
xe
xc
xa   a
x a
xc
x  d
% Bar 7
b
1  c   a
x   c
x a
x      /a
0.  dc  //a
1  d
% Bar 8
b
0  db  ///a
1  cc  a
x     d
x    a
2  c
x  d
1.  a   ///a
3   c
x  a
% Bar 9
b
1   c
x      a
x    a
x   c
0.cacc
% Bar 10
bb

% Stave 3
% Bar 10
b
1c
% Bar 11
b
1.cacc  a
2 a
1 c
x  d
x  c
x    a
x    c
x     d
% Bar 12
b
1 a c c
x      a
xc
x d
x c   d
x    a
x    c
x c
% Bar 13
b
1 c  d
x  a
xe
xg
xh    a
x  h
x d
x a
% Bar 14
b
0ecd
1  c
x   e
0e c c
1c
xc
% Bar 15
b

% Stave 4
% Bar 15
b
0c ee
xac  a
x cf  a
1  e
x   c
% Bar 16
b
0 aa e
1  d
x a
0c c   a
1a
xc
% Bar 17
b
1 f    //a
xh
x  h
xg
xed    /a
xcc
xaa
x cd
% Bar 18
b
0.c c   a
1a    c
x c   d
x      /a
1. a    a
3  d
x a
% Bar 19
b
1  d
x      4
x     d
x    c
0.  dcc
% Bar 20
bb
e
