<?xml version="1.0" standalone="no"?>
<mei xmlns="http://www.music-encoding.org/ns/mei" meiversion="3.0.0">
    <meiHead>
        <fileDesc>
            <titleStmt>
                <title>Gagliarda</title>
            </titleStmt>
            <pubStmt />
        </fileDesc>
        <encodingDesc>
            <appInfo>
                <application isodate="2020-11-04" version="1.1.0">
                    <name>luteconv</name>
                </application>
            </appInfo>
        </encodingDesc>
        <workDesc>
            <work>
                <titleStmt>
                    <title>Gagliarda</title>
                </titleStmt>
                <perfMedium>
                    <perfResList>
                        <perfRes label="lute" solo="true">
                            <instrConfig>
                                <courseTuning>
                                    <course n="1" pname="g" oct="4" />
                                    <course n="2" pname="d" oct="4" />
                                    <course n="3" pname="a" oct="3" />
                                    <course n="4" pname="f" oct="3" />
                                    <course n="5" pname="c" oct="3" />
                                    <course n="6" pname="g" oct="2" />
                                    <course n="7" pname="f" oct="2" />
                                </courseTuning>
                            </instrConfig>
                        </perfRes>
                    </perfResList>
                </perfMedium>
            </work>
        </workDesc>
    </meiHead>
    <music>
        <body>
            <mdiv n="1">
                <score>
                    <scoreDef>
                        <staffGrp>
                            <staffDef n="1" lines="6" notationtype="tab.lute.french">
                                <tuning tuning.standard="lute.renaissance.7" />
                                <mensur num="3" />
                            </staffDef>
                        </staffGrp>
                    </scoreDef>
                    <section n="1">
                        <measure n="1">
                            <staff n="1">
                                <layer n="1">
                                    <tabGrp dur.ges="2">
                                        <tabRhythm />
                                        <note tab.course="1" tab.fret="5" />
                                        <note tab.course="2" tab.fret="3" />
                                        <note tab.course="3" tab.fret="0" />
                                        <note tab.course="7" tab.fret="0" />
                                    </tabGrp>
                                    <tabGrp dur.ges="2">
                                        <tabRhythm />
                                        <note tab.course="1" tab.fret="3" />
                                        <note tab.course="2" tab.fret="0" />
                                        <note tab.course="6" tab.fret="0" />
                                    </tabGrp>
                                    <tabGrp dur.ges="2">
                                        <tabRhythm />
                                        <note tab.course="2" tab.fret="2" />
                                    </tabGrp>
                                </layer>
                            </staff>
                        </measure>
                        <measure n="2">
                            <staff n="1">
                                <layer n="1">
                                    <tabGrp dur.ges="2" dots="1">
                                        <tabRhythm />
                                        <note tab.course="1" tab.fret="2" />
                                        <note tab.course="3" tab.fret="0" />
                                        <note tab.course="4" tab.fret="0" />
                                        <note tab.course="6" tab.fret="2" />
                                    </tabGrp>
                                    <tabGrp dur.ges="4">
                                        <tabRhythm />
                                        <note tab.course="1" tab.fret="0" />
                                    </tabGrp>
                                    <tabGrp dur.ges="2">
                                        <tabRhythm />
                                        <note tab.course="2" tab.fret="3" />
                                    </tabGrp>
                                </layer>
                            </staff>
                        </measure>
                        <measure n="3">
                            <staff n="1">
                                <layer n="1">
                                    <tabGrp dur.ges="2">
                                        <tabRhythm />
                                        <note tab.course="1" tab.fret="0" />
                                        <note tab.course="2" tab.fret="0" />
                                        <note tab.course="6" tab.fret="3" />
                                    </tabGrp>
                                    <tabGrp dur.ges="2">
                                        <tabRhythm />
                                        <note tab.course="1" tab.fret="0" />
                                        <note tab.course="2" tab.fret="3" />
                                        <note tab.course="5" tab.fret="0" />
                                    </tabGrp>
                                    <tabGrp dur.ges="2">
                                        <tabRhythm />
                                        <note tab.course="2" tab.fret="2" />
                                    </tabGrp>
                                </layer>
                            </staff>
                        </measure>
                        <measure n="4">
                            <staff n="1">
                                <layer n="1">
                                    <tabGrp dur.ges="2" dots="1">
                                        <tabRhythm />
                                        <note tab.course="2" tab.fret="3" />
                                        <note tab.course="4" tab.fret="0" />
                                        <note tab.course="7" tab.fret="0" />
                                    </tabGrp>
                                    <tabGrp dur.ges="8">
                                        <tabRhythm />
                                        <note tab.course="2" tab.fret="2" />
                                    </tabGrp>
                                    <tabGrp dur.ges="8">
                                        <tabRhythm />
                                        <note tab.course="2" tab.fret="0" />
                                    </tabGrp>
                                    <tabGrp dur.ges="2">
                                        <tabRhythm />
                                        <note tab.course="3" tab.fret="3" />
                                    </tabGrp>
                                </layer>
                            </staff>
                        </measure>
                        <measure n="5">
                            <staff n="1">
                                <layer n="1">
                                    <tabGrp dur.ges="2">
                                        <tabRhythm />
                                        <note tab.course="2" tab.fret="3" />
                                        <note tab.course="4" tab.fret="0" />
                                    </tabGrp>
                                    <tabGrp dur.ges="2">
                                        <tabRhythm />
                                        <note tab.course="1" tab.fret="0" />
                                        <note tab.course="5" tab.fret="4" />
                                    </tabGrp>
                                    <tabGrp dur.ges="2">
                                        <tabRhythm />
                                        <note tab.course="1" tab.fret="2" />
                                        <note tab.course="4" tab.fret="0" />
                                    </tabGrp>
                                </layer>
                            </staff>
                        </measure>
                        <measure n="6">
                            <staff n="1">
                                <layer n="1">
                                    <tabGrp dur.ges="2" dots="1">
                                        <tabRhythm />
                                        <note tab.course="1" tab.fret="3" />
                                        <note tab.course="2" tab.fret="0" />
                                        <note tab.course="3" tab.fret="1" />
                                        <note tab.course="6" tab.fret="3" />
                                    </tabGrp>
                                    <tabGrp dur.ges="8">
                                        <tabRhythm />
                                        <note tab.course="1" tab.fret="2" />
                                    </tabGrp>
                                    <tabGrp dur.ges="8">
                                        <tabRhythm />
                                        <note tab.course="1" tab.fret="0" />
                                    </tabGrp>
                                    <tabGrp dur.ges="2">
                                        <tabRhythm />
                                        <note tab.course="2" tab.fret="3" />
                                    </tabGrp>
                                </layer>
                            </staff>
                        </measure>
                        <measure n="7">
                            <staff n="1">
                                <layer n="1">
                                    <tabGrp dur.ges="2">
                                        <tabRhythm />
                                        <note tab.course="1" tab.fret="2" />
                                        <note tab.course="4" tab.fret="0" />
                                    </tabGrp>
                                    <tabGrp dur.ges="2">
                                        <tabRhythm />
                                        <note tab.course="1" tab.fret="0" />
                                        <note tab.course="5" tab.fret="0" />
                                    </tabGrp>
                                    <tabGrp dur.ges="2">
                                        <tabRhythm />
                                        <note tab.course="2" tab.fret="2" />
                                    </tabGrp>
                                </layer>
                            </staff>
                        </measure>
                        <measure n="8">
                            <staff n="1">
                                <layer n="1">
                                    <tabGrp dur.ges="2" dots="1">
                                        <tabRhythm />
                                        <note tab.course="2" tab.fret="3" />
                                        <note tab.course="3" tab.fret="0" />
                                        <note tab.course="4" tab.fret="0" />
                                        <note tab.course="5" tab.fret="2" />
                                    </tabGrp>
                                    <tabGrp dur.ges="8">
                                        <tabRhythm />
                                        <note tab.course="2" tab.fret="2" />
                                    </tabGrp>
                                    <tabGrp dur.ges="8">
                                        <tabRhythm />
                                        <note tab.course="2" tab.fret="0" />
                                    </tabGrp>
                                    <tabGrp dur.ges="2">
                                        <tabRhythm />
                                        <note tab.course="3" tab.fret="3" />
                                        <note tab.course="6" tab.fret="2" />
                                    </tabGrp>
                                </layer>
                            </staff>
                        </measure>
                        <measure n="9">
                            <staff n="1">
                                <layer n="1">
                                    <tabGrp dur.ges="2" dots="1">
                                        <tabRhythm />
                                        <note tab.course="2" tab.fret="0" />
                                        <note tab.course="6" tab.fret="3" />
                                    </tabGrp>
                                    <tabGrp dur.ges="8">
                                        <tabRhythm />
                                        <note tab.course="3" tab.fret="3" />
                                    </tabGrp>
                                    <tabGrp dur.ges="8">
                                        <tabRhythm />
                                        <note tab.course="3" tab.fret="1" />
                                    </tabGrp>
                                    <tabGrp dur.ges="2">
                                        <tabRhythm />
                                        <note tab.course="3" tab.fret="0" />
                                        <note tab.course="7" tab.fret="0" />
                                    </tabGrp>
                                </layer>
                            </staff>
                        </measure>
                        <measure n="10">
                            <staff n="1">
                                <layer n="1">
                                    <tabGrp dur.ges="2">
                                        <tabRhythm />
                                        <note tab.course="4" tab.fret="2" />
                                        <note tab.course="5" tab.fret="0" />
                                    </tabGrp>
                                    <tabGrp dur.ges="2">
                                        <tabRhythm />
                                        <note tab.course="6" tab.fret="2" />
                                    </tabGrp>
                                    <tabGrp dur.ges="2">
                                        <tabRhythm />
                                        <note tab.course="3" tab.fret="0" />
                                    </tabGrp>
                                </layer>
                            </staff>
                        </measure>
                        <measure n="11">
                            <staff n="1">
                                <layer n="1">
                                    <tabGrp dur.ges="2">
                                        <tabRhythm />
                                        <note tab.course="3" tab.fret="1" />
                                        <note tab.course="6" tab.fret="0" />
                                    </tabGrp>
                                    <tabGrp dur.ges="2">
                                        <tabRhythm />
                                        <note tab.course="4" tab.fret="2" />
                                    </tabGrp>
                                    <tabGrp dur.ges="2">
                                        <tabRhythm />
                                        <note tab.course="3" tab.fret="3" />
                                        <note tab.course="6" tab.fret="2" />
                                    </tabGrp>
                                </layer>
                            </staff>
                        </measure>
                        <measure n="12">
                            <staff n="1">
                                <layer n="1">
                                    <tabGrp dur.ges="2" dots="1">
                                        <tabRhythm />
                                        <note tab.course="2" tab.fret="0" />
                                        <note tab.course="6" tab.fret="3" />
                                    </tabGrp>
                                    <tabGrp dur.ges="4">
                                        <tabRhythm />
                                        <note tab.course="2" tab.fret="2" />
                                    </tabGrp>
                                    <tabGrp dur.ges="2">
                                        <tabRhythm />
                                        <note tab.course="2" tab.fret="3" />
                                    </tabGrp>
                                </layer>
                            </staff>
                        </measure>
                        <measure n="13">
                            <staff n="1">
                                <layer n="1">
                                    <tabGrp dur.ges="2">
                                        <tabRhythm />
                                        <note tab.course="1" tab.fret="0" />
                                    </tabGrp>
                                    <tabGrp dur.ges="2">
                                        <tabRhythm />
                                        <note tab.course="1" tab.fret="2" />
                                        <note tab.course="6" tab.fret="2" />
                                    </tabGrp>
                                    <tabGrp dur.ges="2">
                                        <tabRhythm />
                                        <note tab.course="1" tab.fret="3" />
                                        <note tab.course="6" tab.fret="0" />
                                    </tabGrp>
                                </layer>
                            </staff>
                        </measure>
                        <measure n="14">
                            <staff n="1">
                                <layer n="1">
                                    <tabGrp dur.ges="2" dots="1">
                                        <tabRhythm />
                                        <note tab.course="1" tab.fret="5" />
                                        <note tab.course="2" tab.fret="3" />
                                        <note tab.course="3" tab.fret="0" />
                                        <note tab.course="7" tab.fret="0" />
                                    </tabGrp>
                                    <tabGrp dur.ges="4">
                                        <tabRhythm />
                                        <note tab.course="1" tab.fret="3" />
                                    </tabGrp>
                                    <tabGrp dur.ges="2">
                                        <tabRhythm />
                                        <note tab.course="1" tab.fret="2" />
                                    </tabGrp>
                                </layer>
                            </staff>
                        </measure>
                        <measure n="15">
                            <staff n="1">
                                <layer n="1">
                                    <tabGrp dur.ges="2">
                                        <tabRhythm />
                                        <note tab.course="3" tab.fret="3" />
                                    </tabGrp>
                                    <tabGrp dur.ges="2">
                                        <tabRhythm />
                                        <note tab.course="2" tab.fret="0" />
                                        <note tab.course="4" tab.fret="0" />
                                    </tabGrp>
                                    <tabGrp dur.ges="2">
                                        <tabRhythm />
                                        <note tab.course="2" tab.fret="2" />
                                        <note tab.course="5" tab.fret="4" />
                                    </tabGrp>
                                </layer>
                            </staff>
                        </measure>
                        <measure n="16">
                            <staff n="1">
                                <layer n="1">
                                    <tabGrp dur.ges="2" dots="1">
                                        <tabRhythm />
                                        <note tab.course="2" tab.fret="3" />
                                        <note tab.course="5" tab.fret="2" />
                                    </tabGrp>
                                    <tabGrp dur.ges="4">
                                        <tabRhythm />
                                        <note tab.course="1" tab.fret="0" />
                                    </tabGrp>
                                    <tabGrp dur.ges="2">
                                        <tabRhythm />
                                        <note tab.course="1" tab.fret="2" />
                                    </tabGrp>
                                </layer>
                            </staff>
                        </measure>
                        <measure n="17">
                            <staff n="1">
                                <layer n="1">
                                    <tabGrp dur.ges="2">
                                        <tabRhythm />
                                        <note tab.course="2" tab.fret="0" />
                                    </tabGrp>
                                    <tabGrp dur.ges="2">
                                        <tabRhythm />
                                        <note tab.course="2" tab.fret="2" />
                                        <note tab.course="4" tab.fret="2" />
                                    </tabGrp>
                                    <tabGrp dur.ges="2">
                                        <tabRhythm />
                                        <note tab.course="2" tab.fret="3" />
                                        <note tab.course="4" tab.fret="0" />
                                    </tabGrp>
                                </layer>
                            </staff>
                        </measure>
                        <measure n="18">
                            <staff n="1">
                                <layer n="1">
                                    <tabGrp dur.ges="2" dots="1">
                                        <tabRhythm />
                                        <note tab.course="2" tab.fret="2" />
                                        <note tab.course="5" tab.fret="0" />
                                    </tabGrp>
                                    <tabGrp dur.ges="4">
                                        <tabRhythm />
                                        <note tab.course="2" tab.fret="3" />
                                    </tabGrp>
                                    <tabGrp dur.ges="2">
                                        <tabRhythm />
                                        <note tab.course="1" tab.fret="0" />
                                    </tabGrp>
                                </layer>
                            </staff>
                        </measure>
                        <measure n="19">
                            <staff n="1">
                                <layer n="1">
                                    <tabGrp dur.ges="2">
                                        <tabRhythm />
                                        <note tab.course="4" tab.fret="0" />
                                    </tabGrp>
                                    <tabGrp dur.ges="2">
                                        <tabRhythm />
                                        <note tab.course="4" tab.fret="2" />
                                        <note tab.course="6" tab.fret="0" />
                                    </tabGrp>
                                    <tabGrp dur.ges="2">
                                        <tabRhythm />
                                        <note tab.course="3" tab.fret="0" />
                                        <note tab.course="7" tab.fret="0" />
                                    </tabGrp>
                                </layer>
                            </staff>
                        </measure>
                        <measure n="20">
                            <staff n="1">
                                <layer n="1">
                                    <tabGrp dur.ges="2" dots="1">
                                        <tabRhythm />
                                        <note tab.course="3" tab.fret="1" />
                                        <note tab.course="6" tab.fret="0" />
                                    </tabGrp>
                                    <tabGrp dur.ges="4">
                                        <tabRhythm />
                                        <note tab.course="3" tab.fret="3" />
                                        <note tab.course="6" tab.fret="2" />
                                    </tabGrp>
                                    <tabGrp dur.ges="2">
                                        <tabRhythm />
                                        <note tab.course="2" tab.fret="0" />
                                        <note tab.course="6" tab.fret="3" />
                                    </tabGrp>
                                </layer>
                            </staff>
                        </measure>
                        <measure n="21">
                            <staff n="1">
                                <layer n="1">
                                    <tabGrp dur.ges="2">
                                        <tabRhythm />
                                        <note tab.course="2" tab.fret="2" />
                                        <note tab.course="5" tab.fret="0" />
                                    </tabGrp>
                                    <tabGrp dur.ges="2">
                                        <tabRhythm />
                                        <note tab.course="2" tab.fret="3" />
                                        <note tab.course="5" tab.fret="2" />
                                    </tabGrp>
                                    <tabGrp dur.ges="2">
                                        <tabRhythm />
                                        <note tab.course="1" tab.fret="0" />
                                        <note tab.course="3" tab.fret="3" />
                                        <note tab.course="5" tab.fret="4" />
                                    </tabGrp>
                                </layer>
                            </staff>
                        </measure>
                        <measure n="22">
                            <staff n="1">
                                <layer n="1">
                                    <tabGrp dur.ges="2" dots="1">
                                        <tabRhythm />
                                        <note tab.course="1" tab.fret="2" />
                                        <note tab.course="3" tab.fret="3" />
                                        <note tab.course="4" tab.fret="0" />
                                    </tabGrp>
                                    <tabGrp dur.ges="4">
                                        <tabRhythm />
                                        <note tab.course="1" tab.fret="3" />
                                    </tabGrp>
                                    <tabGrp dur.ges="2">
                                        <tabRhythm />
                                        <note tab.course="1" tab.fret="5" />
                                    </tabGrp>
                                </layer>
                            </staff>
                        </measure>
                        <measure n="23">
                            <staff n="1">
                                <layer n="1">
                                    <tabGrp dur.ges="2">
                                        <tabRhythm />
                                        <note tab.course="2" tab.fret="3" />
                                        <note tab.course="3" tab.fret="3" />
                                        <note tab.course="6" tab.fret="2" />
                                    </tabGrp>
                                    <tabGrp dur.ges="2">
                                        <tabRhythm />
                                        <note tab.course="1" tab.fret="0" />
                                        <note tab.course="2" tab.fret="3" />
                                        <note tab.course="3" tab.fret="3" />
                                        <note tab.course="5" tab.fret="0" />
                                    </tabGrp>
                                    <tabGrp dur.ges="2">
                                        <tabRhythm />
                                        <note tab.course="2" tab.fret="2" />
                                    </tabGrp>
                                </layer>
                            </staff>
                        </measure>
                        <measure n="24">
                            <staff n="1">
                                <layer n="1">
                                    <tabGrp dur.ges="2" dots="1">
                                        <tabRhythm />
                                        <note tab.course="2" tab.fret="3" />
                                        <note tab.course="3" tab.fret="0" />
                                        <note tab.course="4" tab.fret="0" />
                                        <note tab.course="7" tab.fret="0" />
                                    </tabGrp>
                                    <tabGrp dur.ges="4">
                                        <tabRhythm />
                                        <note tab.course="1" tab.fret="0" />
                                    </tabGrp>
                                    <tabGrp dur.ges="2">
                                        <tabRhythm />
                                        <note tab.course="2" tab.fret="3" />
                                    </tabGrp>
                                </layer>
                            </staff>
                        </measure>
                        <measure n="25">
                            <staff n="1">
                                <layer n="1">
                                    <tabGrp dur.ges="2">
                                        <tabRhythm />
                                        <note tab.course="3" tab.fret="3" />
                                        <note tab.course="4" tab.fret="0" />
                                    </tabGrp>
                                    <tabGrp dur.ges="2">
                                        <tabRhythm />
                                        <note tab.course="3" tab.fret="3" />
                                        <note tab.course="5" tab.fret="4" />
                                    </tabGrp>
                                    <tabGrp dur.ges="2">
                                        <tabRhythm />
                                        <note tab.course="2" tab.fret="0" />
                                        <note tab.course="3" tab.fret="2" />
                                        <note tab.course="5" tab.fret="2" />
                                    </tabGrp>
                                </layer>
                            </staff>
                        </measure>
                        <measure n="26">
                            <staff n="1">
                                <layer n="1">
                                    <tabGrp dur.ges="2" dots="1">
                                        <tabRhythm />
                                        <note tab.course="2" tab.fret="2" />
                                        <note tab.course="3" tab.fret="3" />
                                        <note tab.course="5" tab.fret="0" />
                                    </tabGrp>
                                    <tabGrp dur.ges="4">
                                        <tabRhythm />
                                        <note tab.course="2" tab.fret="3" />
                                    </tabGrp>
                                    <tabGrp dur.ges="4">
                                        <tabRhythm />
                                        <note tab.course="1" tab.fret="0" />
                                    </tabGrp>
                                    <tabGrp dur.ges="4">
                                        <tabRhythm />
                                        <note tab.course="6" tab.fret="3" />
                                    </tabGrp>
                                </layer>
                            </staff>
                        </measure>
                        <measure n="27">
                            <staff n="1">
                                <layer n="1">
                                    <tabGrp dur.ges="4" dots="1">
                                        <tabRhythm />
                                        <note tab.course="1" tab.fret="2" />
                                        <note tab.course="6" tab.fret="2" />
                                    </tabGrp>
                                    <tabGrp dur.ges="8">
                                        <tabRhythm />
                                        <note tab.course="1" tab.fret="3" />
                                    </tabGrp>
                                    <tabGrp dur.ges="4">
                                        <tabRhythm />
                                        <note tab.course="1" tab.fret="5" />
                                    </tabGrp>
                                    <tabGrp dur.ges="4">
                                        <tabRhythm />
                                        <note tab.course="2" tab.fret="3" />
                                    </tabGrp>
                                    <tabGrp dur.ges="4">
                                        <tabRhythm />
                                        <note tab.course="1" tab.fret="3" />
                                        <note tab.course="6" tab.fret="0" />
                                    </tabGrp>
                                    <tabGrp dur.ges="4">
                                        <tabRhythm />
                                        <note tab.course="2" tab.fret="2" />
                                    </tabGrp>
                                </layer>
                            </staff>
                        </measure>
                        <measure n="28">
                            <staff n="1">
                                <layer n="1">
                                    <tabGrp dur.ges="2" dots="1">
                                        <tabRhythm />
                                        <note tab.course="1" tab.fret="2" />
                                        <note tab.course="2" tab.fret="3" />
                                        <note tab.course="7" tab.fret="0" />
                                    </tabGrp>
                                    <tabGrp dur.ges="4">
                                        <tabRhythm />
                                        <note tab.course="1" tab.fret="0" />
                                    </tabGrp>
                                    <tabGrp dur.ges="2">
                                        <tabRhythm />
                                        <note tab.course="2" tab.fret="3" />
                                    </tabGrp>
                                </layer>
                            </staff>
                        </measure>
                        <measure n="29">
                            <staff n="1">
                                <layer n="1">
                                    <tabGrp dur.ges="4" dots="1">
                                        <tabRhythm />
                                        <note tab.course="1" tab.fret="0" />
                                        <note tab.course="5" tab.fret="3" />
                                    </tabGrp>
                                    <tabGrp dur.ges="8">
                                        <tabRhythm />
                                        <note tab.course="1" tab.fret="2" />
                                    </tabGrp>
                                    <tabGrp dur.ges="4">
                                        <tabRhythm />
                                        <note tab.course="1" tab.fret="3" />
                                    </tabGrp>
                                    <tabGrp dur.ges="4">
                                        <tabRhythm />
                                        <note tab.course="5" tab.fret="2" />
                                    </tabGrp>
                                    <tabGrp dur.ges="4">
                                        <tabRhythm />
                                        <note tab.course="1" tab.fret="2" />
                                        <note tab.course="5" tab.fret="0" />
                                    </tabGrp>
                                    <tabGrp dur.ges="4">
                                        <tabRhythm />
                                        <note tab.course="2" tab.fret="1" />
                                    </tabGrp>
                                </layer>
                            </staff>
                        </measure>
                        <measure n="30">
                            <staff n="1">
                                <layer n="1">
                                    <tabGrp dur.ges="4" dots="1">
                                        <tabRhythm />
                                        <note tab.course="1" tab.fret="3" />
                                        <note tab.course="2" tab.fret="0" />
                                        <note tab.course="6" tab.fret="3" />
                                    </tabGrp>
                                    <tabGrp dur.ges="8">
                                        <tabRhythm />
                                        <note tab.course="2" tab.fret="2" />
                                    </tabGrp>
                                    <tabGrp dur.ges="4">
                                        <tabRhythm />
                                        <note tab.course="2" tab.fret="3" />
                                    </tabGrp>
                                    <tabGrp dur.ges="4">
                                        <tabRhythm />
                                        <note tab.course="1" tab.fret="0" />
                                    </tabGrp>
                                    <tabGrp dur.ges="4">
                                        <tabRhythm />
                                        <note tab.course="2" tab.fret="2" />
                                        <note tab.course="5" tab.fret="0" />
                                    </tabGrp>
                                    <tabGrp dur.ges="4">
                                        <tabRhythm />
                                        <note tab.course="3" tab.fret="1" />
                                    </tabGrp>
                                </layer>
                            </staff>
                        </measure>
                        <measure n="31">
                            <staff n="1">
                                <layer n="1">
                                    <tabGrp dur.ges="4" dots="1">
                                        <tabRhythm />
                                        <note tab.course="2" tab.fret="3" />
                                        <note tab.course="3" tab.fret="0" />
                                        <note tab.course="5" tab.fret="2" />
                                    </tabGrp>
                                    <tabGrp dur.ges="8">
                                        <tabRhythm />
                                        <note tab.course="1" tab.fret="0" />
                                    </tabGrp>
                                    <tabGrp dur.ges="4">
                                        <tabRhythm />
                                        <note tab.course="1" tab.fret="2" />
                                    </tabGrp>
                                    <tabGrp dur.ges="4">
                                        <tabRhythm />
                                        <note tab.course="2" tab.fret="3" />
                                    </tabGrp>
                                    <tabGrp dur.ges="4">
                                        <tabRhythm />
                                        <note tab.course="1" tab.fret="0" />
                                        <note tab.course="6" tab.fret="3" />
                                    </tabGrp>
                                    <tabGrp dur.ges="4">
                                        <tabRhythm />
                                        <note tab.course="2" tab.fret="3" />
                                    </tabGrp>
                                </layer>
                            </staff>
                        </measure>
                        <measure n="32">
                            <staff n="1">
                                <layer n="1">
                                    <tabGrp dur.ges="4" dots="1">
                                        <tabRhythm />
                                        <note tab.course="2" tab.fret="2" />
                                        <note tab.course="5" tab.fret="0" />
                                    </tabGrp>
                                    <tabGrp dur.ges="8">
                                        <tabRhythm />
                                        <note tab.course="2" tab.fret="3" />
                                    </tabGrp>
                                    <tabGrp dur.ges="4">
                                        <tabRhythm />
                                        <note tab.course="1" tab.fret="0" />
                                    </tabGrp>
                                    <tabGrp dur.ges="4">
                                        <tabRhythm />
                                        <note tab.course="3" tab.fret="3" />
                                    </tabGrp>
                                    <tabGrp dur.ges="4">
                                        <tabRhythm />
                                        <note tab.course="2" tab.fret="3" />
                                        <note tab.course="6" tab.fret="2" />
                                    </tabGrp>
                                    <tabGrp dur.ges="4">
                                        <tabRhythm />
                                        <note tab.course="2" tab.fret="2" />
                                    </tabGrp>
                                </layer>
                            </staff>
                        </measure>
                        <measure n="33">
                            <staff n="1">
                                <layer n="1">
                                    <tabGrp dur.ges="4" dots="1">
                                        <tabRhythm />
                                        <note tab.course="2" tab.fret="0" />
                                        <note tab.course="6" tab.fret="3" />
                                    </tabGrp>
                                    <tabGrp dur.ges="8">
                                        <tabRhythm />
                                        <note tab.course="2" tab.fret="2" />
                                    </tabGrp>
                                    <tabGrp dur.ges="2">
                                        <tabRhythm />
                                        <note tab.course="2" tab.fret="3" />
                                        <note tab.course="6" tab.fret="2" />
                                    </tabGrp>
                                    <tabGrp dur.ges="2">
                                        <tabRhythm />
                                        <note tab.course="1" tab.fret="0" />
                                        <note tab.course="2" tab.fret="2" />
                                        <note tab.course="3" tab.fret="1" />
                                        <note tab.course="6" tab.fret="0" />
                                    </tabGrp>
                                </layer>
                            </staff>
                        </measure>
                        <measure n="34">
                            <staff n="1">
                                <layer n="1">
                                    <tabGrp dur.ges="2" dots="1">
                                        <tabRhythm />
                                        <note tab.course="1" tab.fret="2" />
                                        <note tab.course="2" tab.fret="3" />
                                        <note tab.course="7" tab.fret="0" />
                                    </tabGrp>
                                    <tabGrp dur.ges="4">
                                        <tabRhythm />
                                        <note tab.course="1" tab.fret="0" />
                                    </tabGrp>
                                    <tabGrp dur.ges="2">
                                        <tabRhythm />
                                        <note tab.course="2" tab.fret="3" />
                                    </tabGrp>
                                </layer>
                            </staff>
                        </measure>
                        <measure n="35">
                            <staff n="1">
                                <layer n="1">
                                    <tabGrp dur.ges="2">
                                        <tabRhythm />
                                        <note tab.course="2" tab.fret="2" />
                                    </tabGrp>
                                    <tabGrp dur.ges="2">
                                        <tabRhythm />
                                        <note tab.course="2" tab.fret="0" />
                                        <note tab.course="3" tab.fret="3" />
                                        <note tab.course="6" tab.fret="0" />
                                    </tabGrp>
                                    <tabGrp dur.ges="2">
                                        <tabRhythm />
                                        <note tab.course="3" tab.fret="2" />
                                    </tabGrp>
                                </layer>
                            </staff>
                        </measure>
                        <measure n="36">
                            <staff n="1">
                                <layer n="1">
                                    <tabGrp dur.ges="2" dots="1">
                                        <tabRhythm />
                                        <note tab.course="1" tab.fret="0" />
                                        <note tab.course="2" tab.fret="2" />
                                        <note tab.course="3" tab.fret="3" />
                                        <note tab.course="5" tab.fret="0" />
                                    </tabGrp>
                                    <tabGrp dur.ges="4">
                                        <tabRhythm />
                                        <note tab.course="2" tab.fret="3" />
                                    </tabGrp>
                                    <tabGrp dur.ges="2">
                                        <tabRhythm />
                                        <note tab.course="1" tab.fret="0" />
                                    </tabGrp>
                                </layer>
                            </staff>
                        </measure>
                        <measure n="37">
                            <staff n="1">
                                <layer n="1">
                                    <tabGrp dur.ges="2">
                                        <tabRhythm />
                                        <note tab.course="3" tab.fret="3" />
                                        <note tab.course="6" tab.fret="2" />
                                    </tabGrp>
                                    <tabGrp dur.ges="2">
                                        <tabRhythm />
                                        <note tab.course="2" tab.fret="3" />
                                        <note tab.course="5" tab.fret="2" />
                                    </tabGrp>
                                    <tabGrp dur.ges="2">
                                        <tabRhythm />
                                        <note tab.course="2" tab.fret="2" />
                                    </tabGrp>
                                </layer>
                            </staff>
                        </measure>
                        <measure n="38">
                            <staff n="1">
                                <layer n="1">
                                    <tabGrp dur.ges="2" dots="1">
                                        <tabRhythm />
                                        <note tab.course="2" tab.fret="0" />
                                        <note tab.course="4" tab.fret="0" />
                                        <note tab.course="6" tab.fret="3" />
                                    </tabGrp>
                                    <tabGrp dur.ges="4">
                                        <tabRhythm />
                                        <note tab.course="2" tab.fret="2" />
                                    </tabGrp>
                                    <tabGrp dur.ges="2">
                                        <tabRhythm />
                                        <note tab.course="2" tab.fret="0" />
                                    </tabGrp>
                                </layer>
                            </staff>
                        </measure>
                        <measure n="39">
                            <staff n="1">
                                <layer n="1">
                                    <tabGrp dur.ges="2">
                                        <tabRhythm />
                                        <note tab.course="3" tab.fret="3" />
                                        <note tab.course="6" tab.fret="2" />
                                    </tabGrp>
                                    <tabGrp dur.ges="2">
                                        <tabRhythm />
                                        <note tab.course="2" tab.fret="0" />
                                        <note tab.course="3" tab.fret="1" />
                                        <note tab.course="6" tab.fret="0" />
                                    </tabGrp>
                                    <tabGrp dur.ges="2">
                                        <tabRhythm />
                                        <note tab.course="2" tab.fret="2" />
                                    </tabGrp>
                                </layer>
                            </staff>
                        </measure>
                        <measure n="40">
                            <staff n="1">
                                <layer n="1">
                                    <tabGrp dur.ges="2" dots="1">
                                        <tabRhythm />
                                        <note tab.course="2" tab.fret="3" />
                                        <note tab.course="3" tab.fret="0" />
                                        <note tab.course="4" tab.fret="0" />
                                        <note tab.course="5" tab.fret="2" />
                                    </tabGrp>
                                    <tabGrp dur.ges="4">
                                        <tabRhythm />
                                        <note tab.course="1" tab.fret="0" />
                                    </tabGrp>
                                    <tabGrp dur.ges="2">
                                        <tabRhythm />
                                        <note tab.course="2" tab.fret="3" />
                                    </tabGrp>
                                </layer>
                            </staff>
                        </measure>
                        <measure n="41">
                            <staff n="1">
                                <layer n="1">
                                    <tabGrp dur.ges="2" dots="1">
                                        <tabRhythm />
                                        <note tab.course="2" tab.fret="2" />
                                        <note tab.course="3" tab.fret="3" />
                                        <note tab.course="6" tab.fret="2" />
                                    </tabGrp>
                                    <tabGrp dur.ges="4">
                                        <tabRhythm />
                                        <note tab.course="2" tab.fret="3" />
                                    </tabGrp>
                                    <tabGrp dur.ges="2">
                                        <tabRhythm />
                                        <note tab.course="2" tab.fret="2" />
                                    </tabGrp>
                                </layer>
                            </staff>
                        </measure>
                        <measure n="42">
                            <staff n="1">
                                <layer n="1">
                                    <tabGrp dur.ges="2" dots="1">
                                        <tabRhythm />
                                        <note tab.course="2" tab.fret="0" />
                                        <note tab.course="3" tab.fret="1" />
                                        <note tab.course="6" tab.fret="3" />
                                    </tabGrp>
                                    <tabGrp dur.ges="4">
                                        <tabRhythm />
                                        <note tab.course="2" tab.fret="1" />
                                    </tabGrp>
                                    <tabGrp dur.ges="2">
                                        <tabRhythm />
                                        <note tab.course="2" tab.fret="0" />
                                    </tabGrp>
                                </layer>
                            </staff>
                        </measure>
                        <measure n="43">
                            <staff n="1">
                                <layer n="1">
                                    <tabGrp dur.ges="2" dots="1">
                                        <tabRhythm />
                                        <note tab.course="3" tab.fret="3" />
                                        <note tab.course="4" tab.fret="0" />
                                        <note tab.course="7" tab.fret="0" />
                                    </tabGrp>
                                    <tabGrp dur.ges="4">
                                        <tabRhythm />
                                        <note tab.course="2" tab.fret="0" />
                                    </tabGrp>
                                    <tabGrp dur.ges="2">
                                        <tabRhythm />
                                        <note tab.course="3" tab.fret="3" />
                                    </tabGrp>
                                </layer>
                            </staff>
                        </measure>
                        <measure n="44">
                            <staff n="1">
                                <layer n="1">
                                    <tabGrp dur.ges="2" dots="1">
                                        <tabRhythm />
                                        <note tab.course="3" tab.fret="1" />
                                        <note tab.course="6" tab.fret="0" />
                                    </tabGrp>
                                    <tabGrp dur.ges="4">
                                        <tabRhythm />
                                        <note tab.course="3" tab.fret="3" />
                                    </tabGrp>
                                    <tabGrp dur.ges="2">
                                        <tabRhythm />
                                        <note tab.course="3" tab.fret="1" />
                                    </tabGrp>
                                </layer>
                            </staff>
                        </measure>
                        <measure n="45">
                            <staff n="1">
                                <layer n="1">
                                    <tabGrp dur.ges="2" dots="1">
                                        <tabRhythm />
                                        <note tab.course="3" tab.fret="0" />
                                        <note tab.course="4" tab.fret="0" />
                                        <note tab.course="5" tab.fret="2" />
                                    </tabGrp>
                                    <tabGrp dur.ges="4">
                                        <tabRhythm />
                                        <note tab.course="3" tab.fret="2" />
                                    </tabGrp>
                                    <tabGrp dur.ges="2">
                                        <tabRhythm />
                                        <note tab.course="3" tab.fret="3" />
                                        <note tab.course="6" tab.fret="2" />
                                    </tabGrp>
                                </layer>
                            </staff>
                        </measure>
                        <measure n="46">
                            <staff n="1">
                                <layer n="1">
                                    <tabGrp dur.ges="2" dots="1">
                                        <tabRhythm />
                                        <note tab.course="2" tab.fret="0" />
                                        <note tab.course="4" tab.fret="0" />
                                        <note tab.course="6" tab.fret="3" />
                                    </tabGrp>
                                    <tabGrp dur.ges="4">
                                        <tabRhythm />
                                        <note tab.course="2" tab.fret="2" />
                                    </tabGrp>
                                    <tabGrp dur.ges="2">
                                        <tabRhythm />
                                        <note tab.course="2" tab.fret="3" />
                                    </tabGrp>
                                </layer>
                            </staff>
                        </measure>
                        <measure n="47">
                            <staff n="1">
                                <layer n="1">
                                    <tabGrp dur.ges="2">
                                        <tabRhythm />
                                        <note tab.course="3" tab.fret="3" />
                                        <note tab.course="4" tab.fret="4" />
                                    </tabGrp>
                                    <tabGrp dur.ges="2">
                                        <tabRhythm />
                                        <note tab.course="1" tab.fret="0" />
                                        <note tab.course="2" tab.fret="3" />
                                        <note tab.course="3" tab.fret="3" />
                                        <note tab.course="5" tab.fret="0" />
                                    </tabGrp>
                                    <tabGrp dur.ges="2">
                                        <tabRhythm />
                                        <note tab.course="2" tab.fret="2" />
                                    </tabGrp>
                                </layer>
                            </staff>
                        </measure>
                        <measure n="48">
                            <staff n="1">
                                <layer n="1">
                                    <tabGrp dur.ges="2" dots="1">
                                        <tabRhythm />
                                        <note tab.course="2" tab.fret="3" />
                                        <note tab.course="3" tab.fret="0" />
                                        <note tab.course="4" tab.fret="0" />
                                        <note tab.course="7" tab.fret="0" />
                                    </tabGrp>
                                    <tabGrp dur.ges="4">
                                        <tabRhythm />
                                        <note tab.course="1" tab.fret="0" />
                                    </tabGrp>
                                    <tabGrp dur.ges="2">
                                        <tabRhythm />
                                        <note tab.course="2" tab.fret="3" />
                                    </tabGrp>
                                </layer>
                            </staff>
                        </measure>
                    </section>
                </score>
            </mdiv>
        </body>
    </music>
</mei>
